<?xml version="1.0" encoding="UTF-8" standalone="no"?>
<!-- Created with Inkscape (http://www.inkscape.org/) -->
<svg
   xmlns:dc="http://purl.org/dc/elements/1.1/"
   xmlns:cc="http://web.resource.org/cc/"
   xmlns:rdf="http://www.w3.org/1999/02/22-rdf-syntax-ns#"
   xmlns:svg="http://www.w3.org/2000/svg"
   xmlns="http://www.w3.org/2000/svg"
   xmlns:sodipodi="http://inkscape.sourceforge.net/DTD/sodipodi-0.dtd"
   xmlns:inkscape="http://www.inkscape.org/namespaces/inkscape"
   width="744.09448819"
   height="1052.3622047"
   id="svg1374"
   sodipodi:version="0.32"
   inkscape:version="0.42"
   sodipodi:docbase="/home/gerald/devel/wsweb"
   sodipodi:docname="sidebar2.svg">
  <defs
     id="defs1376" />
  <sodipodi:namedview
     id="base"
     pagecolor="#ffffff"
     bordercolor="#666666"
     borderopacity="1.0"
     inkscape:pageopacity="0.0"
     inkscape:pageshadow="2"
     inkscape:zoom="2.6578772"
     inkscape:cx="283.77597"
     inkscape:cy="715.91527"
     inkscape:document-units="px"
     inkscape:current-layer="layer1"
     inkscape:window-width="998"
     inkscape:window-height="867"
     inkscape:window-x="67"
     inkscape:window-y="66" />
  <metadata
     id="metadata1379">
    <rdf:RDF>
      <cc:Work
         rdf:about="">
        <dc:format>image/svg+xml</dc:format>
        <dc:type
           rdf:resource="http://purl.org/dc/dcmitype/StillImage" />
      </cc:Work>
    </rdf:RDF>
  </metadata>
  <g
     inkscape:label="Layer 1"
     inkscape:groupmode="layer"
     id="layer1">
    <g
       id="g1472"
       transform="matrix(1.000000,0.000000,0.000000,8.416551e-2,0.000000,187.1035)"
       inkscape:export-xdpi="267.35214"
       inkscape:export-ydpi="267.35214">
      <rect
         style="fill:#336633;stroke:none"
         id="rect1353"
         height="263.74432"
         width="5.0000000"
         y="204.29832"
         x="258.77597" />
      <rect
         style="fill:#99cc99;stroke:none"
         id="rect1355"
         height="263.74432"
         width="2.0000000"
         y="204.29832"
         x="263.77597" />
      <rect
         style="fill:#669966;stroke:none"
         id="rect1357"
         height="263.74432"
         width="3.0000000"
         y="204.29832"
         x="265.77597" />
      <rect
         style="fill:#ddffdd;stroke:none"
         id="rect1359"
         height="263.74432"
         width="4.0000000"
         y="204.29832"
         x="268.77597" />
      <rect
         style="fill:#336633;stroke:none"
         id="rect1361"
         height="263.74432"
         width="2.0000000"
         y="204.29832"
         x="272.77597" />
      <rect
         style="fill:#99cc99;stroke:none"
         id="rect1363"
         height="263.74432"
         width="6.0000000"
         y="204.29832"
         x="274.77597" />
      <rect
         style="fill:#ddffdd;stroke:none"
         id="rect1365"
         height="263.74432"
         width="3.0000000"
         y="204.29832"
         x="280.77597" />
      <rect
         x="283.83551"
         y="204.29832"
         width="3.0000000"
         height="263.74432"
         id="rect1408"
         style="fill:#669966;stroke:none" />
      <rect
         x="286.32062"
         y="204.29832"
         width="2.7524803"
         height="263.74432"
         id="rect1410"
         style="fill:#336633;stroke:none" />
    </g>
  </g>
</svg>
