<?xml version="1.0" encoding="UTF-8" standalone="no"?>
<!-- Created with Inkscape (http://www.inkscape.org/) -->
<svg
   xmlns:dc="http://purl.org/dc/elements/1.1/"
   xmlns:cc="http://creativecommons.org/ns#"
   xmlns:rdf="http://www.w3.org/1999/02/22-rdf-syntax-ns#"
   xmlns:svg="http://www.w3.org/2000/svg"
   xmlns="http://www.w3.org/2000/svg"
   xmlns:xlink="http://www.w3.org/1999/xlink"
   xmlns:sodipodi="http://sodipodi.sourceforge.net/DTD/sodipodi-0.dtd"
   xmlns:inkscape="http://www.inkscape.org/namespaces/inkscape"
   width="512"
   height="512"
   id="svg1315"
   sodipodi:version="0.32"
   inkscape:version="0.46"
   sodipodi:docbase="/home/gerald/devel/wsweb/material"
   sodipodi:docname="wsicon-bug.svg"
   inkscape:export-filename="/Users/gerald/Development/wsweb/material/wsbug.png"
   inkscape:export-xdpi="2.8099999"
   inkscape:export-ydpi="2.8099999"
   inkscape:output_extension="org.inkscape.output.svg.inkscape"
   version="1.0">
  <defs
     id="defs1317">
    <radialGradient
       inkscape:collect="always"
       xlink:href="#linearGradient5170"
       id="radialGradient3814"
       gradientUnits="userSpaceOnUse"
       gradientTransform="matrix(0.821782,0.1408744,-0.2157288,1.2998208,156.89403,-195.62088)"
       cx="227.61479"
       cy="539.23712"
       fx="227.61479"
       fy="539.23712"
       r="15.490987" />
    <linearGradient
       id="linearGradient5170">
      <stop
         style="stop-color:#ffffff;stop-opacity:0.6082474;"
         offset="0"
         id="stop5172" />
      <stop
         style="stop-color:#ffffff;stop-opacity:0;"
         offset="1"
         id="stop5174" />
    </linearGradient>
    <filter
       inkscape:collect="always"
       x="-0.36860257"
       width="1.7372051"
       y="-0.37336349"
       height="1.746727"
       id="filter5459">
      <feGaussianBlur
         inkscape:collect="always"
         stdDeviation="14.462289"
         id="feGaussianBlur5461" />
    </filter>
    <inkscape:perspective
       sodipodi:type="inkscape:persp3d"
       inkscape:vp_x="0 : 255.55304 : 1"
       inkscape:vp_y="0 : 1000 : 0"
       inkscape:vp_z="511.99002 : 255.55304 : 1"
       inkscape:persp3d-origin="255.99501 : 170.36869 : 1"
       id="perspective2465" />
    <linearGradient
       id="linearGradient3953">
      <stop
         id="stop3955"
         offset="0"
         style="stop-color:#d8d8d8;stop-opacity:0.81967211" />
      <stop
         id="stop3957"
         offset="1.0000000"
         style="stop-color:#ffffff;stop-opacity:0.01092896" />
    </linearGradient>
    <linearGradient
       id="linearGradient3500">
      <stop
         style="stop-color:#ffffff;stop-opacity:0.74226803;"
         offset="0.0000000"
         id="stop3502" />
      <stop
         style="stop-color:#ffffff;stop-opacity:0.27835050;"
         offset="1.0000000"
         id="stop3504" />
    </linearGradient>
    <linearGradient
       id="linearGradient2032">
      <stop
         style="stop-color:#40b2e7;stop-opacity:1.0000000;"
         offset="0.0000000"
         id="stop2034" />
      <stop
         id="stop2040"
         offset="1"
         style="stop-color:#1679a7;stop-opacity:0.93814433;" />
    </linearGradient>
    <radialGradient
       inkscape:collect="always"
       xlink:href="#linearGradient2032"
       id="radialGradient2770"
       cx="186.8685"
       cy="319.62469"
       fx="186.8685"
       fy="319.62469"
       r="49.99818"
       gradientTransform="matrix(5.1201091,0,0,5.1112267,-685.46004,-862.46831)"
       gradientUnits="userSpaceOnUse" />
    <linearGradient
       inkscape:collect="always"
       xlink:href="#linearGradient3500"
       id="linearGradient3506"
       x1="168.88493"
       y1="283.36218"
       x2="173.63884"
       y2="317.43823"
       gradientUnits="userSpaceOnUse"
       gradientTransform="matrix(1.023684,0,0,1,-4.386892,-1)" />
    <linearGradient
       inkscape:collect="always"
       xlink:href="#linearGradient3953"
       id="linearGradient3951"
       x1="171.48636"
       y1="278.75113"
       x2="171.69682"
       y2="286.53772"
       gradientUnits="userSpaceOnUse"
       gradientTransform="matrix(1.004705,0,0,1.307709,-0.678079,-85.73315)" />
    <linearGradient
       inkscape:collect="always"
       xlink:href="#linearGradient3953"
       id="linearGradient1330"
       gradientUnits="userSpaceOnUse"
       gradientTransform="matrix(5.1441989,0,0,6.6943328,-688.93185,-1303.9137)"
       x1="171.48636"
       y1="278.75113"
       x2="172.06862"
       y2="289.87024" />
    <radialGradient
       inkscape:collect="always"
       xlink:href="#linearGradient5170"
       id="radialGradient3730"
       gradientUnits="userSpaceOnUse"
       gradientTransform="matrix(0.821782,0.1408744,-0.2157288,1.2998208,180.8577,56.696856)"
       cx="227.61479"
       cy="539.23712"
       fx="227.61479"
       fy="539.23712"
       r="15.490987" />
  </defs>
  <sodipodi:namedview
     id="base"
     pagecolor="#ffffff"
     bordercolor="#666666"
     borderopacity="1.0"
     inkscape:pageopacity="0.0"
     inkscape:pageshadow="2"
     inkscape:zoom="0.70987246"
     inkscape:cx="169.59051"
     inkscape:cy="225.00264"
     inkscape:document-units="px"
     inkscape:current-layer="g3774"
     showgrid="true"
     showguides="true"
     inkscape:grid-points="true"
     inkscape:window-width="1142"
     inkscape:window-height="735"
     inkscape:window-x="233"
     inkscape:window-y="480"
     width="512px"
     height="1052.36px" />
  <metadata
     id="metadata1320">
    <rdf:RDF>
      <cc:Work
         rdf:about="">
        <dc:format>image/svg+xml</dc:format>
        <dc:type
           rdf:resource="http://purl.org/dc/dcmitype/StillImage" />
      </cc:Work>
    </rdf:RDF>
  </metadata>
  <g
     inkscape:label="Layer 1"
     inkscape:groupmode="layer"
     id="layer1"
     transform="translate(-4.992485e-3,-540.89145)">
    <rect
       style="opacity:1;fill:url(#radialGradient2770);fill-opacity:1;stroke:#000000;stroke-width:24;stroke-linejoin:round;stroke-miterlimit:4;stroke-dasharray:none;stroke-opacity:1"
       id="rect5811"
       width="488"
       height="488"
       x="12.004992"
       y="552.89148"
       rx="51.201092"
       ry="51.191303"
       inkscape:export-filename="/home/gerald/devel/wsweb/image/wsicon256.png"
       inkscape:export-xdpi="230.41"
       inkscape:export-ydpi="230.41" />
    <path
       style="fill:url(#linearGradient1330);fill-opacity:1;stroke:none;stroke-width:0;stroke-linecap:round;stroke-linejoin:round;stroke-miterlimit:4;stroke-opacity:1"
       d="M 36.475332,554.81869 C 74.536073,547.05026 427.70392,544.58045 471.68459,554.81869 C 512.80617,564.39137 359.04219,698.15437 256.64002,698.15437 C 154.23784,698.15437 -2.1424224,562.70083 36.475332,554.81869 z"
       id="rect3070"
       sodipodi:nodetypes="czzz" />
    <rect
       style="opacity:1;fill:#ffffff;fill-opacity:0.01092894;stroke:none;stroke-width:0;stroke-linecap:round;stroke-linejoin:round;stroke-miterlimit:4;stroke-dasharray:none;stroke-opacity:1"
       id="rect5705"
       width="1"
       height="0"
       x="143.12317"
       y="285.36218"
       rx="8.9496937"
       ry="0" />
    <g
       transform="matrix(3.367962,-3.6327362,3.6327362,3.367962,-2535.5122,-216.1772)"
       id="g3734"
       style="fill:#121212;fill-opacity:0.60109289;filter:url(#filter5459)">
      <g
         id="g3736"
         transform="translate(0.2574985,1.8776954)"
         style="fill:#121212;fill-opacity:0.60109289">
        <path
           id="path3738"
           d="M 204.19937,535.05711 C 232.3648,548.6704 232.3648,548.6704 232.3648,548.6704"
           style="fill:#121212;fill-opacity:0.60109289;fill-rule:evenodd;stroke:#000000;stroke-width:1.48248065px;stroke-linecap:butt;stroke-linejoin:miter;stroke-opacity:1" />
        <path
           sodipodi:nodetypes="cc"
           id="path3740"
           d="M 196.68858,557.58946 L 231.89538,558.30103"
           style="fill:#121212;fill-opacity:0.60109289;fill-rule:evenodd;stroke:#000000;stroke-width:1.48248065px;stroke-linecap:butt;stroke-linejoin:miter;stroke-opacity:1" />
        <path
           id="path3742"
           d="M 203.26052,576.36641 C 232.83423,568.85562 232.83423,568.85562 232.83423,568.85562"
           style="fill:#121212;fill-opacity:0.60109289;fill-rule:evenodd;stroke:#000000;stroke-width:1.48248065px;stroke-linecap:butt;stroke-linejoin:miter;stroke-opacity:1" />
        <path
           sodipodi:nodetypes="cc"
           style="fill:#121212;fill-opacity:0.60109289;fill-rule:evenodd;stroke:#000000;stroke-width:1.48248065px;stroke-linecap:butt;stroke-linejoin:miter;stroke-opacity:1"
           d="M 211.71015,519.0967 C 233.30365,521.44382 231.89538,542.56789 231.89538,542.56789"
           id="path3744" />
      </g>
      <g
         id="g3746"
         transform="matrix(-1,0,0,1,466.18858,2.3471192)"
         style="fill:#121212;fill-opacity:0.60109289">
        <path
           style="fill:#121212;fill-opacity:0.60109289;fill-rule:evenodd;stroke:#000000;stroke-width:1.48248065px;stroke-linecap:butt;stroke-linejoin:miter;stroke-opacity:1"
           d="M 204.19937,535.05711 C 232.3648,548.6704 232.3648,548.6704 232.3648,548.6704"
           id="path3748" />
        <path
           style="fill:#121212;fill-opacity:0.60109289;fill-rule:evenodd;stroke:#000000;stroke-width:1.48248065px;stroke-linecap:butt;stroke-linejoin:miter;stroke-opacity:1"
           d="M 196.68858,557.58946 L 231.89538,558.30103"
           id="path3750"
           sodipodi:nodetypes="cc" />
        <path
           style="fill:#121212;fill-opacity:0.60109289;fill-rule:evenodd;stroke:#000000;stroke-width:1.48248065px;stroke-linecap:butt;stroke-linejoin:miter;stroke-opacity:1"
           d="M 203.26052,576.36641 C 232.83423,568.85562 232.83423,568.85562 232.83423,568.85562"
           id="path3752" />
        <path
           id="path3754"
           d="M 211.71015,519.0967 C 233.30365,521.44382 231.89538,542.56789 231.89538,542.56789"
           style="fill:#121212;fill-opacity:0.60109289;fill-rule:evenodd;stroke:#000000;stroke-width:1.48248065px;stroke-linecap:butt;stroke-linejoin:miter;stroke-opacity:1"
           sodipodi:nodetypes="cc" />
      </g>
      <path
         sodipodi:type="arc"
         style="opacity:1;fill:#121212;fill-opacity:0.60109289;fill-rule:nonzero;stroke:#000000;stroke-width:1.70907974;stroke-linecap:butt;stroke-linejoin:miter;marker:none;marker-start:none;marker-mid:none;marker-end:none;stroke-miterlimit:4;stroke-dasharray:none;stroke-dashoffset:0;stroke-opacity:1;visibility:visible;display:inline;overflow:visible"
         id="path3756"
         sodipodi:cx="224.85402"
         sodipodi:cy="545.14972"
         sodipodi:rx="15.490987"
         sodipodi:ry="20.419937"
         d="M 240.34501,545.14972 A 15.490987,20.419937 0 1 1 209.36303,545.14972 A 15.490987,20.419937 0 1 1 240.34501,545.14972 z"
         transform="matrix(1.530303,0,0,1.5057471,-111.02585,-265.38058)" />
      <path
         sodipodi:type="arc"
         style="opacity:1;fill:#121212;fill-opacity:0.60109289;fill-rule:nonzero;stroke:none;stroke-width:1;stroke-linecap:butt;stroke-linejoin:miter;marker:none;marker-start:none;marker-mid:none;marker-end:none;stroke-miterlimit:4;stroke-dasharray:none;stroke-dashoffset:0;stroke-opacity:1;visibility:visible;display:inline;overflow:visible"
         id="path3758"
         sodipodi:cx="219.92506"
         sodipodi:cy="559.46716"
         sodipodi:rx="3.051255"
         sodipodi:ry="3.7553906"
         d="M 222.97632,559.46716 A 3.051255,3.7553906 0 1 1 216.87381,559.46716 A 3.051255,3.7553906 0 1 1 222.97632,559.46716 z"
         transform="translate(0.4694238,-6.5719338)" />
      <path
         sodipodi:type="arc"
         style="opacity:1;fill:#121212;fill-opacity:0.60109289;fill-rule:nonzero;stroke:none;stroke-width:1;stroke-linecap:butt;stroke-linejoin:miter;marker:none;marker-start:none;marker-mid:none;marker-end:none;stroke-miterlimit:4;stroke-dasharray:none;stroke-dashoffset:0;stroke-opacity:1;visibility:visible;display:inline;overflow:visible"
         id="path3760"
         sodipodi:cx="245.27396"
         sodipodi:cy="558.29358"
         sodipodi:rx="3.051255"
         sodipodi:ry="3.9901028"
         d="M 248.32521,558.29358 A 3.051255,3.9901028 0 1 1 242.2227,558.29358 A 3.051255,3.9901028 0 1 1 248.32521,558.29358 z"
         transform="translate(0.4694238,-4.2248146)" />
      <path
         sodipodi:type="arc"
         style="opacity:1;fill:#121212;fill-opacity:0.60109289;fill-rule:nonzero;stroke:none;stroke-width:1;stroke-linecap:butt;stroke-linejoin:miter;marker:none;marker-start:none;marker-mid:none;marker-end:none;stroke-miterlimit:4;stroke-dasharray:none;stroke-dashoffset:0;stroke-opacity:1;visibility:visible;display:inline;overflow:visible"
         id="path3762"
         sodipodi:cx="243.39626"
         sodipodi:cy="572.8457"
         sodipodi:rx="3.9901028"
         sodipodi:ry="4.4595265"
         d="M 247.38636,572.8457 A 3.9901028,4.4595265 0 1 1 239.40615,572.8457 A 3.9901028,4.4595265 0 1 1 247.38636,572.8457 z" />
      <path
         sodipodi:type="arc"
         style="opacity:1;fill:#121212;fill-opacity:0.60109289;fill-rule:nonzero;stroke:none;stroke-width:1;stroke-linecap:butt;stroke-linejoin:miter;marker:none;marker-start:none;marker-mid:none;marker-end:none;stroke-miterlimit:4;stroke-dasharray:none;stroke-dashoffset:0;stroke-opacity:1;visibility:visible;display:inline;overflow:visible"
         id="path3764"
         sodipodi:cx="229.31355"
         sodipodi:cy="570.02917"
         sodipodi:rx="3.5206788"
         sodipodi:ry="3.5206788"
         d="M 232.83423,570.02917 A 3.5206788,3.5206788 0 1 1 225.79287,570.02917 A 3.5206788,3.5206788 0 1 1 232.83423,570.02917 z"
         transform="translate(-0.7928741,-5.6330861)" />
      <path
         sodipodi:type="arc"
         style="opacity:1;fill:#121212;fill-opacity:0.60109289;fill-rule:nonzero;stroke:none;stroke-width:1;stroke-linecap:butt;stroke-linejoin:miter;marker:none;marker-start:none;marker-mid:none;marker-end:none;stroke-miterlimit:4;stroke-dasharray:none;stroke-dashoffset:0;stroke-opacity:1;visibility:visible;display:inline;overflow:visible"
         id="path3766"
         sodipodi:cx="221.56805"
         sodipodi:cy="577.53998"
         sodipodi:rx="3.7553906"
         sodipodi:ry="3.9901028"
         d="M 225.32344,577.53998 A 3.7553906,3.9901028 0 1 1 217.81266,577.53998 A 3.7553906,3.9901028 0 1 1 225.32344,577.53998 z" />
      <path
         style="opacity:1;fill:#121212;fill-opacity:0.60109289;fill-rule:nonzero;stroke:none;stroke-width:1.75;stroke-linecap:butt;stroke-linejoin:miter;marker:none;marker-start:none;marker-mid:none;marker-end:none;stroke-miterlimit:4;stroke-dasharray:none;stroke-dashoffset:0;stroke-opacity:1;visibility:visible;display:inline;overflow:visible"
         d="M 233.2638,524.73854 C 224.56065,524.73854 217.10693,530.77673 214.16097,539.29363 L 252.33971,539.29363 C 249.39322,530.7779 241.96622,524.73855 233.2638,524.73854 z"
         id="path3768" />
      <path
         style="fill:#121212;fill-opacity:0.60109289;fill-rule:evenodd;stroke:#000000;stroke-width:2.59434128;stroke-linecap:butt;stroke-linejoin:miter;stroke-miterlimit:4;stroke-dasharray:none;stroke-opacity:1"
         d="M 233.30365,528.01575 L 233.30365,585.75488"
         id="path3770" />
      <path
         transform="matrix(1.530303,0,0,1.5057471,-111.02585,-265.38058)"
         d="M 240.34501,545.14972 A 15.490987,20.419937 0 1 1 209.36303,545.14972 A 15.490987,20.419937 0 1 1 240.34501,545.14972 z"
         sodipodi:ry="20.419937"
         sodipodi:rx="15.490987"
         sodipodi:cy="545.14972"
         sodipodi:cx="224.85402"
         id="path3772"
         style="opacity:1;fill:#121212;fill-opacity:0.60109289;fill-rule:nonzero;stroke:none;stroke-width:1.15285134;stroke-linecap:butt;stroke-linejoin:miter;marker:none;marker-start:none;marker-mid:none;marker-end:none;stroke-miterlimit:4;stroke-dasharray:none;stroke-dashoffset:0;stroke-opacity:1;visibility:visible;display:inline;overflow:visible"
         sodipodi:type="arc" />
    </g>
    <g
       id="g3774"
       transform="matrix(3.367962,-3.6327362,3.6327362,3.367962,-2546.7846,-229.96682)">
      <path
         id="path3778"
         d="M 204.45687,536.93481 C 232.6223,550.5481 232.6223,550.5481 232.6223,550.5481"
         style="fill:none;fill-opacity:0.75000000000000000;fill-rule:evenodd;stroke:#000000;stroke-width:6.45971306000000034;stroke-linecap:round;stroke-linejoin:miter;stroke-opacity:1;stroke-miterlimit:4;stroke-dasharray:none" />
      <path
         sodipodi:nodetypes="cc"
         id="path3780"
         d="M 196.94608,559.46716 L 232.15288,560.17873"
         style="fill:none;fill-opacity:0.75000000000000000;fill-rule:evenodd;stroke:#000000;stroke-width:6.45971306000000034;stroke-linecap:round;stroke-linejoin:miter;stroke-opacity:1;stroke-miterlimit:4;stroke-dasharray:none" />
      <path
         id="path3782"
         d="M 203.51802,578.24411 C 233.09173,570.73332 233.09173,570.73332 233.09173,570.73332"
         style="fill:none;fill-opacity:0.75000000000000000;fill-rule:evenodd;stroke:#000000;stroke-width:6.45971306000000034;stroke-linecap:round;stroke-linejoin:miter;stroke-opacity:1;stroke-miterlimit:4;stroke-dasharray:none" />
      <path
         sodipodi:nodetypes="cc"
         style="fill:none;fill-opacity:0.75000000000000000;fill-rule:evenodd;stroke:#000000;stroke-width:6.45971306000000034;stroke-linecap:round;stroke-linejoin:miter;stroke-opacity:1;stroke-miterlimit:4;stroke-dasharray:none"
         d="M 211.96765,520.9744 C 233.56115,523.32152 232.15288,544.44559 232.15288,544.44559"
         id="path3784" />
      <path
         style="fill:none;fill-opacity:0.75000000000000000;fill-rule:evenodd;stroke:#000000;stroke-width:6.45971306000000034;stroke-linecap:round;stroke-linejoin:miter;stroke-opacity:1;stroke-miterlimit:4;stroke-dasharray:none"
         d="M 261.98921,537.40423 C 233.82378,551.01752 233.82378,551.01752 233.82378,551.01752"
         id="path3788" />
      <path
         style="fill:none;fill-opacity:0.75000000000000000;fill-rule:evenodd;stroke:#000000;stroke-width:6.45971306000000034;stroke-linecap:round;stroke-linejoin:miter;stroke-opacity:1;stroke-miterlimit:4;stroke-dasharray:none"
         d="M 269.5,559.93658 L 234.2932,560.64815"
         id="path3790"
         sodipodi:nodetypes="cc" />
      <path
         style="fill:none;fill-opacity:0.75000000000000000;fill-rule:evenodd;stroke:#000000;stroke-width:6.45971306000000034;stroke-linecap:round;stroke-linejoin:miter;stroke-opacity:1;stroke-miterlimit:4;stroke-dasharray:none"
         d="M 262.92806,578.71353 C 233.35435,571.20274 233.35435,571.20274 233.35435,571.20274"
         id="path3792" />
      <path
         id="path3794"
         d="M 254.47843,521.44382 C 232.88493,523.79094 234.2932,544.91501 234.2932,544.91501"
         style="fill:none;fill-opacity:0.75000000000000000;fill-rule:evenodd;stroke:#000000;stroke-width:6.45971306000000034;stroke-linecap:round;stroke-linejoin:miter;stroke-opacity:1;stroke-miterlimit:4;stroke-dasharray:none"
         sodipodi:nodetypes="cc" />
      <path
         transform="matrix(1.530303,0,0,1.5057471,-111.02585,-265.38058)"
         d="M 240.34501,545.14972 A 15.490987,20.419937 0 1 1 209.36303,545.14972 A 15.490987,20.419937 0 1 1 240.34501,545.14972 z"
         sodipodi:ry="20.419937"
         sodipodi:rx="15.490987"
         sodipodi:cy="545.14972"
         sodipodi:cx="224.85402"
         id="path3796"
         style="opacity:1;fill:#c60000;fill-opacity:1;fill-rule:nonzero;stroke:#000000;stroke-width:1.70907974;stroke-linecap:butt;stroke-linejoin:miter;marker:none;marker-start:none;marker-mid:none;marker-end:none;stroke-miterlimit:4;stroke-dasharray:none;stroke-dashoffset:0;stroke-opacity:1;visibility:visible;display:inline;overflow:visible"
         sodipodi:type="arc" />
      <path
         transform="translate(0.4694238,-6.5719338)"
         d="M 222.97632,559.46716 A 3.051255,3.7553906 0 1 1 216.87381,559.46716 A 3.051255,3.7553906 0 1 1 222.97632,559.46716 z"
         sodipodi:ry="3.7553906"
         sodipodi:rx="3.051255"
         sodipodi:cy="559.46716"
         sodipodi:cx="219.92506"
         id="path3798"
         style="opacity:1;fill:#000000;fill-opacity:1;fill-rule:nonzero;stroke:none;stroke-width:1;stroke-linecap:butt;stroke-linejoin:miter;marker:none;marker-start:none;marker-mid:none;marker-end:none;stroke-miterlimit:4;stroke-dasharray:none;stroke-dashoffset:0;stroke-opacity:1;visibility:visible;display:inline;overflow:visible"
         sodipodi:type="arc" />
      <path
         transform="translate(0.4694238,-4.2248146)"
         d="M 248.32521,558.29358 A 3.051255,3.9901028 0 1 1 242.2227,558.29358 A 3.051255,3.9901028 0 1 1 248.32521,558.29358 z"
         sodipodi:ry="3.9901028"
         sodipodi:rx="3.051255"
         sodipodi:cy="558.29358"
         sodipodi:cx="245.27396"
         id="path3800"
         style="opacity:1;fill:#000000;fill-opacity:1;fill-rule:nonzero;stroke:none;stroke-width:1;stroke-linecap:butt;stroke-linejoin:miter;marker:none;marker-start:none;marker-mid:none;marker-end:none;stroke-miterlimit:4;stroke-dasharray:none;stroke-dashoffset:0;stroke-opacity:1;visibility:visible;display:inline;overflow:visible"
         sodipodi:type="arc" />
      <path
         d="M 247.38636,572.8457 A 3.9901028,4.4595265 0 1 1 239.40615,572.8457 A 3.9901028,4.4595265 0 1 1 247.38636,572.8457 z"
         sodipodi:ry="4.4595265"
         sodipodi:rx="3.9901028"
         sodipodi:cy="572.8457"
         sodipodi:cx="243.39626"
         id="path3802"
         style="opacity:1;fill:#000000;fill-opacity:1;fill-rule:nonzero;stroke:none;stroke-width:1;stroke-linecap:butt;stroke-linejoin:miter;marker:none;marker-start:none;marker-mid:none;marker-end:none;stroke-miterlimit:4;stroke-dasharray:none;stroke-dashoffset:0;stroke-opacity:1;visibility:visible;display:inline;overflow:visible"
         sodipodi:type="arc" />
      <path
         transform="translate(-0.7928741,-5.6330861)"
         d="M 232.83423,570.02917 A 3.5206788,3.5206788 0 1 1 225.79287,570.02917 A 3.5206788,3.5206788 0 1 1 232.83423,570.02917 z"
         sodipodi:ry="3.5206788"
         sodipodi:rx="3.5206788"
         sodipodi:cy="570.02917"
         sodipodi:cx="229.31355"
         id="path3804"
         style="opacity:1;fill:#000000;fill-opacity:1;fill-rule:nonzero;stroke:none;stroke-width:1;stroke-linecap:butt;stroke-linejoin:miter;marker:none;marker-start:none;marker-mid:none;marker-end:none;stroke-miterlimit:4;stroke-dasharray:none;stroke-dashoffset:0;stroke-opacity:1;visibility:visible;display:inline;overflow:visible"
         sodipodi:type="arc" />
      <path
         d="M 225.32344,577.53998 A 3.7553906,3.9901028 0 1 1 217.81266,577.53998 A 3.7553906,3.9901028 0 1 1 225.32344,577.53998 z"
         sodipodi:ry="3.9901028"
         sodipodi:rx="3.7553906"
         sodipodi:cy="577.53998"
         sodipodi:cx="221.56805"
         id="path3806"
         style="opacity:1;fill:#000000;fill-opacity:1;fill-rule:nonzero;stroke:none;stroke-width:1;stroke-linecap:butt;stroke-linejoin:miter;marker:none;marker-start:none;marker-mid:none;marker-end:none;stroke-miterlimit:4;stroke-dasharray:none;stroke-dashoffset:0;stroke-opacity:1;visibility:visible;display:inline;overflow:visible"
         sodipodi:type="arc" />
      <path
         id="path3808"
         d="M 233.2638,524.73854 C 224.56065,524.73854 217.10693,530.77673 214.16097,539.29363 L 252.33971,539.29363 C 249.39322,530.7779 241.96622,524.73855 233.2638,524.73854 z"
         style="opacity:1;fill:#000000;fill-opacity:1;fill-rule:nonzero;stroke:none;stroke-width:1.75;stroke-linecap:butt;stroke-linejoin:miter;marker:none;marker-start:none;marker-mid:none;marker-end:none;stroke-miterlimit:4;stroke-dasharray:none;stroke-dashoffset:0;stroke-opacity:1;visibility:visible;display:inline;overflow:visible" />
      <path
         id="path3810"
         d="M 233.30365,528.01575 L 233.30365,585.75488"
         style="fill:none;fill-opacity:0.75;fill-rule:evenodd;stroke:#000000;stroke-width:2.59434128;stroke-linecap:butt;stroke-linejoin:miter;stroke-miterlimit:4;stroke-dasharray:none;stroke-opacity:1" />
      <path
         sodipodi:type="arc"
         style="opacity:1;fill:url(#radialGradient3814);fill-opacity:1;fill-rule:nonzero;stroke:none;stroke-width:1.15285134;stroke-linecap:butt;stroke-linejoin:miter;marker:none;marker-start:none;marker-mid:none;marker-end:none;stroke-miterlimit:4;stroke-dasharray:none;stroke-dashoffset:0;stroke-opacity:1;visibility:visible;display:inline;overflow:visible"
         id="path3812"
         sodipodi:cx="224.85402"
         sodipodi:cy="545.14972"
         sodipodi:rx="15.490987"
         sodipodi:ry="20.419937"
         d="M 240.34501,545.14972 A 15.490987,20.419937 0 1 1 209.36303,545.14972 A 15.490987,20.419937 0 1 1 240.34501,545.14972 z"
         transform="matrix(1.530303,0,0,1.5057471,-111.02585,-265.38058)" />
    </g>
  </g>
</svg>
